…
matched_df <- lapply(1:cnt_companies, function(e) {
  bind_cols(
    df %>%
      filter(input_row_key == input$input_row_key[e]) %>%
      .[best_match_combined[e],]
  )
}) %>% 
  list_rbind() %>%
  filter(!is.na(input_row_key))

matched_df
```

# A tibble: 543 × 76

input_row_key input_company_name input_main_country_c…¹
input_main_country <dbl> <chr> <chr> <chr>  
1 0 24-SEVEN MEDIA NETWO… PK Pakistan  
2 1 2OPERATE A/S DK Denmark  
3 10 ACCENTURE SERVICES AS NO Norway  
4 100 COMBA TELECOM LIMITED HK Hong Kong  
5 101 Comengineering Sdn. … MY Malaysia  
6 102 COMMSCOPE SOLUTIONS … SG Singapore  
7 103 CommScope Technologi… CH Switzerland  
8 105 COMVIVA TECHNOLOGIES… IN India  
9 106 CONSCIA DANMARK A/S DK Denmark  
10 107 CONTROL RISKS GROUP … GB United Kingdom  
\# ℹ 533 more rows \# ℹ abbreviated name: ¹​input_main_country_code \# ℹ
…
